%YAML 1.1
%TAG !u! tag:unity3d.com,2011:
--- !u!114 &11400000
MonoBehaviour:
  m_ObjectHideFlags: 0
  m_CorrespondingSourceObject: {fileID: 0}
  m_PrefabInstance: {fileID: 0}
  m_PrefabAsset: {fileID: 0}
  m_GameObject: {fileID: 0}
  m_Enabled: 1
  m_EditorHideFlags: 0
  m_Script: {fileID: 11500000, guid: 271458c06bed7ca4b9a72a8c99d6c575, type: 3}
  m_Name: Octopus
  m_EditorClassIdentifier: 
  baseHealth: 30
  baseShield: 80
  baseShieldRegen: 4
  baseShieldRegenDelay: 1.2
  baseArmor: 5
  baseSpeed: 2
  baseEnergy: 80
  baseFireRate: 2
  turretTurnSpeed: 0.5
  sprite: {fileID: 21300000, guid: faf622fa16b998f4a96c71f3ec3a05ee, type: 3}
  color: {r: 0, g: 0.7830189, b: 0.71073806, a: 1}
  abilities: []
  maxProjectiles:
  - {fileID: 11400000, guid: 87a56528717e9d04fa223fcf5a9da05b, type: 2}
  - {fileID: 11400000, guid: fa6aee7210cb8c64895f01b20641914f, type: 2}
  - {fileID: 11400000, guid: ee8d5c41b62096043ae00d9ce1850cde, type: 2}
  - {fileID: 11400000, guid: b49542bb8404a5c43b25cc94d6e750f1, type: 2}
  maxProjectilesAmmounts: 00000000000000000000000000000000
  baseWeapon: {fileID: 11400000, guid: bb266147d6ec4004f8e70955af476e74, type: 2}
  firePattern: 1
  requiredNeighbors:
  - {fileID: 0}
  - {fileID: 0}
  - {fileID: 0}
  - {fileID: 0}
  burstAmmount: 3
  burstWait: 5
  fireChance: 0
  pickupChance: 0.534
  pickups:
  - {fileID: 11400000, guid: e85e7bc458ced0745a5aef9f2042c9fd, type: 2}
  - {fileID: 11400000, guid: d235cffb61292564fb4201b3bfb3429e, type: 2}
  - {fileID: 11400000, guid: e6733303b148e7f4cbd69d29b1b23197, type: 2}
  pickupChances:
  - 0.4
  - 0.3
  - 0.3
  score: 8
