%YAML 1.1
%TAG !u! tag:unity3d.com,2011:
--- !u!114 &11400000
MonoBehaviour:
  m_ObjectHideFlags: 0
  m_CorrespondingSourceObject: {fileID: 0}
  m_PrefabInstance: {fileID: 0}
  m_PrefabAsset: {fileID: 0}
  m_GameObject: {fileID: 0}
  m_Enabled: 1
  m_EditorHideFlags: 0
  m_Script: {fileID: 11500000, guid: 04b9401cf0cc07b4bb0d6fc685170c7e, type: 3}
  m_Name: Frost
  m_EditorClassIdentifier: 
  compartments:
  - affectedStat: 3
    calculation: 0
    targetUsedStat: 4
    comparisonStat: 4
    value: 0.2
    isAdditive: 0
  duration: 5
  ticks: 1
  isOffensive: 1
  graphic: {fileID: 21300000, guid: c064dbcbfe5dd68479e814004c475c3d, type: 3}
  isUnique: 0
  uniques: []
