%YAML 1.1
%TAG !u! tag:unity3d.com,2011:
--- !u!114 &11400000
MonoBehaviour:
  m_ObjectHideFlags: 0
  m_CorrespondingSourceObject: {fileID: 0}
  m_PrefabInstance: {fileID: 0}
  m_PrefabAsset: {fileID: 0}
  m_GameObject: {fileID: 0}
  m_Enabled: 1
  m_EditorHideFlags: 0
  m_Script: {fileID: 11500000, guid: 04b9401cf0cc07b4bb0d6fc685170c7e, type: 3}
  m_Name: IncreaseArmor
  m_EditorClassIdentifier: 
  compartments:
  - affectedStat: 1
    calculation: 2
    targetUsedStat: 0
    comparisonStat: 0
    value: 15
    isAdditive: 0
  duration: 0
  ticks: 1
  isOffensive: 0
  graphic: {fileID: 21300000, guid: 2261bc54ebf1313409bf6baee4b2f17d, type: 3}
  isUnique: 0
  uniques: []
