%YAML 1.1
%TAG !u! tag:unity3d.com,2011:
--- !u!114 &11400000
MonoBehaviour:
  m_ObjectHideFlags: 0
  m_CorrespondingSourceObject: {fileID: 0}
  m_PrefabInstance: {fileID: 0}
  m_PrefabAsset: {fileID: 0}
  m_GameObject: {fileID: 0}
  m_Enabled: 1
  m_EditorHideFlags: 0
  m_Script: {fileID: 11500000, guid: 2ab8f03017662ad48b206bf07cc7cd6d, type: 3}
  m_Name: Basic
  m_EditorClassIdentifier: 
  baseHealth: 250
  baseShield: 130
  baseShieldRegen: 10
  baseShieldRegenDelay: 4
  baseArmor: 90
  baseSpeed: 2.5
  baseEnergy: 120
  baseFireRate: 1
  turretTurnSpeed: 1
  sprite: {fileID: 21300000, guid: 212c65004b0084343a9636477e575788, type: 3}
  color: {r: 0.12381935, g: 1, b: 0, a: 1}
  abilities:
  - {fileID: 11400000, guid: 0729e9020a9348f4f8c89cd25e2b5fbb, type: 2}
  - {fileID: 11400000, guid: 94c6e7f82be138746aa5e958b02fc14c, type: 2}
  maxProjectiles:
  - {fileID: 11400000, guid: 87a56528717e9d04fa223fcf5a9da05b, type: 2}
  - {fileID: 11400000, guid: fa6aee7210cb8c64895f01b20641914f, type: 2}
  - {fileID: 11400000, guid: ee8d5c41b62096043ae00d9ce1850cde, type: 2}
  - {fileID: 11400000, guid: b49542bb8404a5c43b25cc94d6e750f1, type: 2}
  maxProjectilesAmmounts: 00000000200300002c01000010000000
  baseWeapon: {fileID: 11400000, guid: d638fb0f0dc1960419f647ee957358a3, type: 2}
  weapons:
  - {fileID: 11400000, guid: 52125f9fae232604f8a6f56945f212fa, type: 2}
