%YAML 1.1
%TAG !u! tag:unity3d.com,2011:
--- !u!114 &11400000
MonoBehaviour:
  m_ObjectHideFlags: 0
  m_CorrespondingSourceObject: {fileID: 0}
  m_PrefabInstance: {fileID: 0}
  m_PrefabAsset: {fileID: 0}
  m_GameObject: {fileID: 0}
  m_Enabled: 1
  m_EditorHideFlags: 0
  m_Script: {fileID: 11500000, guid: 2363485a83ea28d4096c465531a62ee8, type: 3}
  m_Name: Armor
  m_EditorClassIdentifier: 
  effects:
  - {fileID: 11400000, guid: 9a7a49269827ee74d899b55ceb62d00d, type: 2}
  sprite: {fileID: 21300000, guid: 2261bc54ebf1313409bf6baee4b2f17d, type: 3}
