%YAML 1.1
%TAG !u! tag:unity3d.com,2011:
--- !u!114 &11400000
MonoBehaviour:
  m_ObjectHideFlags: 0
  m_CorrespondingSourceObject: {fileID: 0}
  m_PrefabInstance: {fileID: 0}
  m_PrefabAsset: {fileID: 0}
  m_GameObject: {fileID: 0}
  m_Enabled: 1
  m_EditorHideFlags: 0
  m_Script: {fileID: 11500000, guid: 2363485a83ea28d4096c465531a62ee8, type: 3}
  m_Name: Energy
  m_EditorClassIdentifier: 
  effects:
  - {fileID: 11400000, guid: a6a5ab9b57a04b844a61b08d6e056cc5, type: 2}
  sprite: {fileID: 21300000, guid: c5a162d85d08be643a8c34951ee8097d, type: 3}
